…
    olympics_top20 <- read_csv("olympics_top20.csv")

    q95 <- olympics_top20 %>%
    filter(str_detect(sex,"F")) %>%
    group_by(event) %>%
    summarize(Height_at_95th_Quantile = quantile(height, prob =(.95)))
    print(q95)

    ## # A tibble: 132 x 2
    ##    event                                       Height_at_95th_Quantile
    ##    <chr>                                                         <dbl>
    ##  1 Athletics Women's 1,500 metres                                 172 
    ##  2 Athletics Women's 10 kilometres Walk                           170 
    ##  3 Athletics Women's 10,000 metres                                168.
    ##  4 Athletics Women's 100 metres                                   180.
    ##  5 Athletics Women's 100 metres Hurdles                           176 
    ##  6 Athletics Women's 20 kilometres Walk                           173 
    ##  7 Athletics Women's 200 metres                                   180 
    ##  8 Athletics Women's 3,000 metres                                 170 
    ##  9 Athletics Women's 3,000 metres Steeplechase                    177.
    ## 10 Athletics Women's 4 x 100 metres Relay                         176 
    ## # ... with 122 more rows
…
